<svg xmlns="http://www.w3.org/2000/svg" width="22" height="22" viewBox="0 0 22 22">
    <path fill="#FFF" fill-rule="nonzero" d="M4.084 2.408l1.372-1.372a.25.25 0 0 0-.147-.425L.302.021a.25.25 0 0 0-.278.278l.59 5.005a.25.25 0 0 0 .426.147l1.365-1.365 4.18 4.174a.25.25 0 0 0 .352 0l1.325-1.322a.25.25 0 0 0 0-.353L4.084 2.408zM15.107 8.26a.25.25 0 0 0 .353 0l4.179-4.174 1.366 1.365c.147.147.4.06.425-.147l.59-5.002a.25.25 0 0 0-.278-.278l-5.007.59a.25.25 0 0 0-.147.425l1.372 1.372-4.178 4.171a.25.25 0 0 0 0 .353l1.325 1.325zm6.323 8.474a.25.25 0 0 0-.425-.147l-1.366 1.365-4.179-4.174a.25.25 0 0 0-.353 0L13.782 15.1a.25.25 0 0 0 0 .353l4.178 4.177-1.372 1.372a.25.25 0 0 0 .147.425l5.007.59a.25.25 0 0 0 .278-.278l-.59-5.005zM6.937 13.778a.25.25 0 0 0-.353 0l-4.179 4.174-1.365-1.365a.25.25 0 0 0-.425.147l-.591 5.002a.25.25 0 0 0 .278.278l5.007-.59a.25.25 0 0 0 .147-.425L4.084 19.63l4.178-4.174a.25.25 0 0 0 0-.353l-1.325-1.325z"/>
</svg>
