<svg xmlns="http://www.w3.org/2000/svg" width="104" height="32" viewBox="0 0 104 32">
    <g fill="none" fill-rule="evenodd">
        <path fill="#FFF" fill-rule="nonzero" d="M61.815 23.332c-.524-.108-1.075.037-1.66-.102.125-.376.218-.72.356-1.043a.427.427 0 0 1 .318-.204c.93-.013 1.86-.005 2.792 0a.619.619 0 0 1 .18.072c-.011.105-.03.21-.056.313-.256.785-.522 1.568-.773 2.355a.69.69 0 0 1-.392.446c-.944.434-1.929.709-2.97.68-.793-.022-1.547-.206-2.096-.863a1.983 1.983 0 0 1-.483-1.076c-.157-1.526.349-2.827 1.409-3.899.77-.78 1.704-1.234 2.828-1.188.367.005.735.037 1.098.093.912.18 1.62.91 1.777 1.834.003.096-.003.193-.018.289l-1.421.203c-.075-.19-.119-.33-.186-.463-.17-.331-.41-.57-.8-.633-1.389-.222-2.32.521-2.75 1.458-.253.554-.423 1.13-.39 1.754.033.663.287.998.924 1.107.657.113 1.275-.041 1.884-.24.298-.098.4-.357.43-.893zM72.41 20.609l.037.324c.946-.484 1.863-.803 2.682.2l.886-.463c.397-.208.824-.198 1.25-.152.5.06.88.483.886.99-.01.33-.065.657-.165.97a98.38 98.38 0 0 1-.899 2.755c-.04.116-.146.282-.24.295a4.59 4.59 0 0 1-1.38-.01c.123-.423.22-.794.336-1.161.227-.71.472-1.414.69-2.126.057-.183.193-.406-.039-.568-.203-.144-.421-.087-.625.016-.468.236-.763.629-.931 1.112-.266.77-.518 1.544-.762 2.321-.132.422-.149.452-.602.45-.337 0-.679.032-1.061-.044.1-.36.18-.676.278-.988.24-.763.488-1.524.732-2.287.032-.09.052-.185.057-.282.005-.243-.155-.394-.393-.359-.351.053-.668.194-.87.498a3.48 3.48 0 0 0-.396.766c-.247.702-.46 1.416-.687 2.125-.054.166-.115.336-.18.525-.501.083-.982.054-1.515.021.038-.182.052-.302.089-.415.257-.816.52-1.63.78-2.445.18-.565.352-1.133.539-1.697.12-.364.159-.391.526-.393.321.001.645.015.977.022zM92.404 20.84c-.686-.007-.686 0-1.003.624-.123-.116-.207-.234-.32-.297-.266-.15-.537-.357-.824-.395-1.082-.142-1.864.405-2.464 1.263a3.604 3.604 0 0 0-.615 1.858c-.045.692.09 1.352.756 1.748.535.316 1.082.26 1.63.047.146-.057.284-.132.473-.221a1.18 1.18 0 0 1-.024.217 4.74 4.74 0 0 1-.187.456c-.222.445-.891.67-1.328.442a.533.533 0 0 1-.182-.208 1.716 1.716 0 0 1-.105-.288c-.492-.042-.966-.188-1.472-.165-.138.537-.108 1.01.3 1.356.222.198.489.337.777.405.463.09.935.118 1.405.087 1.007-.077 1.778-.553 2.118-1.571.549-1.641 1.075-3.29 1.607-4.937.024-.122.035-.246.036-.37-.218-.021-.398-.048-.578-.05zm-1.545 1.937c-.062.627-.267 1.2-.757 1.637-.196.171-.443.27-.7.28-.406.031-.7-.342-.703-.955.05-.595.3-1.154.707-1.583.34-.349.942-.485 1.265.011.112.172.206.413.186.61h.002zM82.377 25.54h-1.46c-.078-.344.09-.619.175-.897.34-1.098.706-2.187 1.06-3.28.304-.934.225-.776 1.046-.786.203 0 .406.018.625.03l.035.386.717-.349c.434-.21.899-.186 1.353-.132.49.07.859.481.873.973.008.331-.033.662-.122.98-.267.903-.57 1.795-.865 2.689-.128.387-.167.416-.563.412-.356-.006-.718.049-1.11-.053.034-.142.054-.261.091-.375.285-.884.57-1.767.859-2.649a2.51 2.51 0 0 0 .113-.398c.052-.338-.145-.549-.48-.5-.519.083-.947.328-1.207.796-.142.254-.26.52-.355.796-.22.641-.419 1.29-.627 1.936-.043.136-.1.262-.158.422zM81.172 20.845c-.09.573-1.414 4.476-1.602 4.73h-1.42c.018-.156.045-.31.083-.462.43-1.304.864-2.607 1.301-3.908.147-.434.166-.453.649-.44.321.008.655-.075.989.08zM68.482 20.572c-.396-.085-.814-.072-1.222-.095-.55-.031-1.04.171-1.472.475-.34.24-.66.532-.802 1.026.18.044.334.092.49.116.181.028.37.015.548.056a.51.51 0 0 0 .587-.215c.235-.32.59-.372.955-.332.22.029.385.217.386.44-.012.228-.152.367-.415.394-.34.035-.68.043-1.011.095a13.7 13.7 0 0 0-1.078.225c-.388.093-.68.335-.936.635-.45.534-.484 1.26-.121 1.87.235.396 1.135.72 1.596.536.364-.144.726-.292 1.05-.427.1.106.183.277.283.287.435.058.876.055 1.31-.01.042-.427.035-.77.116-1.093.146-.58.346-1.144.52-1.717.071-.23.15-.459.197-.694.16-.773-.212-1.4-.981-1.572zm-2.323 4.078a.496.496 0 0 1-.46-.321c-.064-.171.043-.428.261-.523a4.6 4.6 0 0 1 .8-.245 6.01 6.01 0 0 1 .654-.079c-.08.737-.614 1.217-1.255 1.168z"/>
        <path fill="#EBEEF5" fill-rule="nonzero" d="M30.713 25.44c-.099-.236-.202-.47-.296-.71-.542-1.38-1.091-2.759-1.614-4.147-.121-.322-.308-.409-.623-.408-2.293.007-4.585.004-6.878.004-.22 0-.443.018-.663-.004-.331-.033-.543.124-.729.377a756.38 756.38 0 0 1-2.71 3.676c-.317.434-.648.864-.966 1.298a.472.472 0 0 1-.414.232c-.856-.004-1.712-.005-2.569-.01-.024 0-.05-.02-.131-.058 1.103-1.533 2.245-3.015 3.358-4.525 1.113-1.51 2.255-3.014 3.38-4.522 1.124-1.51 2.227-3.001 3.343-4.501 1.117-1.5 2.249-3.007 3.427-4.585.178.439.324.79.464 1.145L31.4 19.569c.179.45.267.88.17 1.37L34.345 5.17H17.607c-.796 0-1.591.004-2.378.007-.026.07-.048.142-.067.215-.166.927-.326 1.855-.492 2.781-.133.736-.275 1.47-.404 2.207-.195 1.119-.378 2.239-.573 3.358-.136.777-.29 1.552-.425 2.333-.192 1.105-.371 2.213-.564 3.317-.135.778-.29 1.552-.426 2.33-.196 1.118-.381 2.238-.572 3.357a2603.87 2603.87 0 0 1-.532 3.112c-.042.244-.1.483-.174.834h19.087l.713-3.617-.087.035z"/>
        <path fill="#000" fill-rule="nonzero" d="M30.774 25.437l.824-4.411c-.276 1.29-.51 2.588-.758 3.884-.038.174-.049.35-.066.527z"/>
        <path fill="#FFF" fill-rule="nonzero" d="M34.937 2.076l-.247 1.392-.307 1.701-2.763 15.783-.763 4.464-.083.435H54.35c.048-.129.09-.26.122-.395.278-1.584.553-3.168.826-4.753.372-2.159.736-4.318 1.112-6.475.283-1.626.583-3.248.868-4.872.405-2.308.805-4.615 1.201-6.922.02-.118.024-.237.035-.347-.362-.109-23.142-.119-23.577-.011zm17.916 8.847H50.79c-.24 0-.405-.06-.527-.3-.714-1.406-1.875-2.22-3.383-2.53-.962-.191-1.91-.107-2.852.162a7.466 7.466 0 0 0-3.68 2.418 7.128 7.128 0 0 0-1.643 3.67c-.204 1.45.12 2.752.997 3.914.66.872 1.544 1.396 2.588 1.673 1.096.29 2.174.216 3.25-.105a7.377 7.377 0 0 0 3.374-2.146c.128-.14.234-.301.409-.53-.218-.022-.356-.048-.496-.049h-4.386l.425-2.561c.352-.126 7.377-.139 7.79-.013-.027.221-.047.45-.083.678-.082.506-.186 1.009-.262 1.516-.1.667-.537 1.146-.89 1.668a6.226 6.226 0 0 1-.875 1.042c-.563.526-1.131 1.063-1.769 1.485-.703.459-1.447.852-2.222 1.173a7.808 7.808 0 0 1-2.928.602c-.881.013-1.76.01-2.612-.26a7.32 7.32 0 0 1-2.534-1.345 6.747 6.747 0 0 1-2.001-2.85 7.002 7.002 0 0 1-.42-2.193 8.882 8.882 0 0 1 .203-2.51c.405-1.675 1.204-3.14 2.325-4.444 1.363-1.585 3.042-2.665 5.001-3.305a6.852 6.852 0 0 1 2.186-.364c.769.005 1.535-.016 2.296.162a6.992 6.992 0 0 1 2.99 1.507c1.03.877 1.707 1.976 2.088 3.27.046.153.064.315.104.525-.187.023-.293.04-.4.04z"/>
        <path fill="#EBEEF5" fill-rule="nonzero" d="M30.727 25.85l-.64 3.172h4.77l.586-3.171h-4.716z"/>
        <path fill="#C0C4CC" fill-rule="nonzero" d="M30.637 25.85h4.67l-.581 3.172z"/>
        <path fill="#FFF" fill-rule="nonzero" d="M65.654 15.977c.4-.238.839-.189 1.252-.245.087-.012.238.143.29.255.149.318.392.41.706.396.178-.006.357.005.536-.005.247-.014.451-.102.551-.35-.04-.273-.243-.34-.436-.409-.387-.145-.782-.267-1.161-.431-1.012-.44-1.104-1.385-.484-2.125.427-.51 1-.743 1.624-.82.53-.067 1.066-.065 1.589.113.447.152.742.465.944.885.054.115.051.26.082.44l-1.35.241c-.256-.502-.689-.626-1.18-.58-.365.035-.435.098-.578.374.063.274.306.284.507.36.462.17.927.34 1.386.527.753.304.824 1.387.363 1.944-.489.587-1.084.954-1.834 1.008-.786.057-1.566.051-2.24-.48-.36-.279-.56-.627-.567-1.098zM71.147 17.445c.041-.153.072-.285.112-.417l1.29-4.118c.103-.334.213-.417.56-.424.202-.01.405-.01.608 0 .153.025.304.062.451.109-.113.402-.205.762-.315 1.114-.343 1.096-.69 2.191-1.04 3.285-.174.545-.215.579-.783.566-.275.002-.566.085-.883-.115zM72.795 11.983c.14-.443.248-.821.385-1.188a.367.367 0 0 1 .244-.211c.415-.037.834-.072 1.286.036.012.118.01.237-.005.355-.066.256-.156.505-.233.758-.068.225-.203.345-.436.33-.386-.025-.78.055-1.24-.08zM81.721 18.935c-.124.394-.23.758-.357 1.114a.345.345 0 0 1-.2.203c-.445.102-.893.143-1.365-.06.037-.454.188-.845.355-1.226a.312.312 0 0 1 .24-.14c.373-.013.748 0 1.122.005.05.001.1.047.205.104zM22.26 17.456c.388.157 5.012.16 5.356.03-.04-.435-1.633-4.322-1.903-4.595l-3.453 4.565zM64.727 14.915c-.018-.363-.046-.727-.072-1.091-.05-.7-.097-1.401-.155-2.1-.028-.332-.082-.662-.128-1.035-.544 0-1.042-.013-1.54.012-.104.005-.222.142-.297.244-.407.56-.794 1.13-1.192 1.696l-3.106 4.421a1.809 1.809 0 0 0-.135.286c.343.137.66.042.963.082.436.06.717-.125.934-.488.199-.336.437-.651.638-.943.745-.081 2.309-.05 2.607.05.126.426-.094.922.236 1.357.422.023.86.072 1.297-.036a.961.961 0 0 0 .053-.225c-.032-.744-.066-1.487-.103-2.23zm-3.299-.276l1.565-2.12c.245.732.005 1.417.25 2.12h-1.815zM78.103 12.286a4.865 4.865 0 0 0-1.093-.08c-.93.05-1.686.438-2.183 1.256a2.096 2.096 0 0 0-.118.323l1.407.13c.5-.566.88-.665 1.487-.419v.634c-.57.068-1.099.142-1.63.192-.53.05-1.024.192-1.46.51-.544.396-.783 1.312-.498 1.918.317.672 1.02.982 1.785.756.333-.1.649-.256.994-.395l.207.352c.472-.004.918.073 1.367-.055.025-.105.04-.213.044-.321-.041-.523.112-1.007.273-1.493.179-.537.367-1.074.51-1.618.22-.829-.244-1.542-1.092-1.69zm-2.213 4.086c-.219-.011-.385-.079-.436-.314-.051-.234.022-.425.244-.526.234-.093.476-.163.724-.209.242-.051.49-.071.746-.106-.15.773-.619 1.185-1.278 1.151v.004z"/>
        <path fill="#EBEEF5" fill-rule="nonzero" d="M22.26 17.456c1.156-1.528 2.302-3.047 3.453-4.565.27.273 1.863 4.16 1.903 4.595-.344.13-4.968.127-5.356-.03z"/>
        <path d="M50.974 7.11a6.974 6.974 0 0 0-2.983-1.502c-.759-.178-1.523-.156-2.29-.161-.741 0-1.477.121-2.18.358-1.955.635-3.63 1.717-4.99 3.298-1.118 1.302-1.915 2.763-2.319 4.435a8.865 8.865 0 0 0-.203 2.504c.022.748.164 1.487.42 2.189a6.732 6.732 0 0 0 1.996 2.842 7.3 7.3 0 0 0 2.528 1.344c.849.27 1.729.272 2.605.26a7.787 7.787 0 0 0 2.921-.602c.773-.32 1.515-.712 2.216-1.17.637-.422 1.203-.957 1.765-1.482.327-.315.62-.665.87-1.045.353-.52.79-.998.889-1.664.075-.506.178-1.008.262-1.512.037-.227.057-.456.082-.677-.412-.125-7.42-.113-7.77.013l-.425 2.555h4.378c.138 0 .276.027.493.05-.174.227-.28.388-.407.528a7.359 7.359 0 0 1-3.366 2.142c-1.07.321-2.148.395-3.241.105-1.042-.277-1.924-.8-2.582-1.67-.875-1.156-1.198-2.457-.994-3.902a7.113 7.113 0 0 1 1.638-3.662 7.448 7.448 0 0 1 3.67-2.413c.94-.271 1.887-.355 2.843-.159 1.508.31 2.667 1.123 3.375 2.525.122.24.287.303.526.3.685-.006 1.371 0 2.058 0 .106 0 .212-.02.399-.04-.04-.21-.058-.37-.104-.525-.378-1.29-1.053-2.387-2.08-3.262zM34.208 5.17l.274-1.653-.274 1.654z"/>
        <path fill="#000" fill-rule="nonzero" d="M34.482 3.517L34.757 2c-.087.5-.178 1.005-.275 1.517z"/>
        <path d="M50.974 7.11a6.974 6.974 0 0 0-2.983-1.502c-.759-.178-1.523-.156-2.29-.161-.741 0-1.477.121-2.18.358-1.955.635-3.63 1.717-4.99 3.298-1.118 1.302-1.915 2.763-2.319 4.435a8.865 8.865 0 0 0-.203 2.504c.022.748.164 1.487.42 2.189a6.732 6.732 0 0 0 1.996 2.842 7.3 7.3 0 0 0 2.528 1.344c.849.27 1.729.272 2.605.26a7.787 7.787 0 0 0 2.921-.602c.773-.32 1.515-.712 2.216-1.17.637-.422 1.203-.957 1.765-1.482.327-.315.62-.665.87-1.045.353-.52.79-.998.889-1.664.075-.506.178-1.008.262-1.512.037-.227.057-.456.082-.677-.412-.125-7.42-.113-7.77.013l-.425 2.555h4.378c.138 0 .276.027.493.05-.174.227-.28.388-.407.528a7.359 7.359 0 0 1-3.366 2.142c-1.07.321-2.148.395-3.241.105-1.042-.277-1.924-.8-2.582-1.67-.875-1.156-1.198-2.457-.994-3.902a7.113 7.113 0 0 1 1.638-3.662 7.448 7.448 0 0 1 3.67-2.413c.94-.271 1.887-.355 2.843-.159 1.508.31 2.667 1.123 3.375 2.525.122.24.287.303.526.3.685-.006 1.371 0 2.058 0 .106 0 .212-.02.399-.04-.04-.21-.058-.37-.104-.525-.378-1.29-1.053-2.387-2.08-3.262z"/>
    </g>
</svg>
