<svg xmlns="http://www.w3.org/2000/svg" width="104" height="32" viewBox="0 0 104 32">
    <g fill="#FFF" fill-rule="evenodd">
        <path d="M92.123 2a5.726 5.726 0 1 1 0 11.453h-18.61a5.726 5.726 0 0 1 0-11.453h18.61zm-9.77 3.787c-.817 0-1.474.266-1.972.797-.497.532-.745 1.233-.745 2.105 0 .922.271 1.65.815 2.183.543.533 1.285.8 2.224.8a7.28 7.28 0 0 0 2.05-.318v-1.066c-.638.236-1.212.354-1.722.354-1.076 0-1.665-.537-1.768-1.61h3.49c0-1.124-.189-1.946-.568-2.466-.38-.519-.98-.779-1.805-.779zm-8.89-1.83h-1.388v7.587h1.266V6.36l3.49 5.183h1.415V3.957H76.98V9.14l-3.516-5.183zm13.672 1.958h-1.41l1.564 5.629h1.456l1.148-3.86 1.025 3.86h1.456l1.671-5.629H92.99l-1.194 3.963-1.061-3.963H89.42l-1.179 3.942-1.107-3.942zm-4.829.82c.619 0 .928.48.928 1.441h-2.02c.1-.96.464-1.44 1.092-1.44z"/>
        <path fill-rule="nonzero" d="M11 20.558V7.726c1.361-.01 2.193.601 2.625 1.914.172.579.247 1.183.222 1.786-.005.589-.003 1.177-.002 1.8h.066v1.183l.128-.084.023-.03c.224-.154.348-.237.47-.323 1.983-1.394 4.173-1.828 6.542-1.347 1.626.332 3.002 1.134 4.164 2.308 3.147 3.171 6.287 6.35 9.42 9.535 1.074 1.093 2.362 1.683 3.89 1.675 2.604-.013 4.745-1.904 5.18-4.52.411-2.478-1.09-5.048-3.497-5.872-2.074-.712-3.886-.16-5.461 1.29-1.355 1.243-2.912 1.468-4.63.996-.282-.075-.456-.178-.456-.543.017-3.124.019-6.246.007-9.367 0-.208.046-.318.145-.367v-.034c.045 0 .09 0 .134.002a.954.954 0 0 1 .187.009c1.177.089 1.917.743 2.316 2.03.036.128.067.257.094.387.104.43.152.873.14 1.318-.008 1.551 0 2.624 0 3.303 2.7-2.334 5.674-3.003 8.886-1.72 3.212 1.283 4.815 3.854 5.225 7.279 1.09-1.015 2.092-1.966 3.117-2.896a.902.902 0 0 0 .257-.372 4.56 4.56 0 0 0 .012-.401c-.01-.922.035-1.843 0-2.762-.018-.456.196-.534.647-.466.907.136 1.557.563 2.037 1.22.117-.092.213-.167.308-.245 4.687-3.877 11.614-1.783 13.312 4.028.133.454.22.92.324 1.376v9.367c-1.285.026-2.123-.5-2.623-1.651a4.742 4.742 0 0 1-.382-1.913c.007-1.584.029-3.168 0-4.751-.04-2.322-1.113-4.066-3.25-4.973-2.139-.907-4.022-.358-5.797 1.12-.538.42-.964.965-1.241 1.588-.032.79-.029 1.409.01 1.855.106 1.977.184 3.975-.076 5.952-.162 1.245-.744 2.271-2.166 2.674-.164.047-.337.064-.504.096-.395.077-.518-.073-.509-.438.016-.915 0-1.83 0-2.742v-3.975c-.001-.205.035-.42-.078-.676l-.053.044c-.276.243-.514.44-.74.65-1.748 1.618-3.491 3.241-5.23 4.87-3.297 3.09-8.29 3.053-11.497-.136-3.232-3.216-6.403-6.492-9.632-9.71-2.953-2.945-7.787-1.613-8.843 2.398-.84 3.196 1.395 6.413 4.693 6.695 1.584.134 2.94-.46 4.086-1.53 1.393-1.308 3.016-1.559 4.806-1.008.12.02.216.107.247.224-1.474 1.34-2.67 3.03-4.426 4.116-5.199 3.225-12.07-.252-12.526-6.322-.02-.246-.067-.49-.101-.734v-.348zM52.072 7.727a1.715 1.715 0 0 1 1.579 1.028 1.716 1.716 0 0 1-.217 1.956c-.35.425-.766.794-1.141 1.198-.179.192-.324.245-.526.023-.372-.408-.793-.774-1.14-1.2-.504-.613-.558-1.321-.209-2.026.323-.65.885-.98 1.655-.98z"/>
    </g>
</svg>
